14-Jan-2021 21:31:41.954 INFO [http-nio-8080-exec-8] org.apache.catalina.core.ApplicationContext.log HTMLHostManager: list: Listing hosts for engine [Catalina]
14-Jan-2021 21:32:16.590 INFO [http-nio-8080-exec-9] org.apache.catalina.core.ApplicationContext.log HTMLHostManager: list: Listing hosts for engine [Catalina]
14-Jan-2021 21:32:16.731 INFO [http-nio-8080-exec-8] org.apache.catalina.core.ApplicationContext.log HTMLHostManager: list: Listing hosts for engine [Catalina]
14-Jan-2021 21:32:25.167 INFO [http-nio-8080-exec-1] org.apache.catalina.core.ApplicationContext.log HTMLHostManager: add: Adding host []
14-Jan-2021 21:32:25.167 INFO [http-nio-8080-exec-1] org.apache.catalina.core.ApplicationContext.log HTMLHostManager: list: Listing hosts for engine [Catalina]
